^C:\USERS\KILLER_PC\SOURCE\REPOS\HOMEWORK_MODULE_17.5\HOMEWORK_MODULE_17.5\DEBUG\SOURCE.OBJ
C:\USERS\KILLER_PC\SOURCE\REPOS\HOMEWORK_MODULE_17.5\DEBUG\HOMEWORK_MODULE_17.5.EXE
C:\USERS\KILLER_PC\SOURCE\REPOS\HOMEWORK_MODULE_17.5\DEBUG\HOMEWORK_MODULE_17.5.ILK
C:\USERS\KILLER_PC\SOURCE\REPOS\HOMEWORK_MODULE_17.5\DEBUG\HOMEWORK_MODULE_17.5.PDB
